README
-----------------------------------------------------------
 libAdapterNend.a    ver1.2.4
-----------------------------------------------------------

【admobメディエーション用アダプタについて】

libAdapterNend.a は google社 AdMobメディエーション機能から
nend広告を利用する場合に必要になるアダプタです。

AdMobメディエーションを使用しない場合、
もしくはカスタムイベントとして設定＆独自実装をされている場合
には、このライブラリの追加は必要ありません。

AdMobメディエーションの設定方法については
以下のページを参照してください。

https://github.com/fan-ADN/nendSDK-admob-mediation/wiki

-----------------------------------------------------------
nend / http://nend.net 
 (c) F@N Communications, Inc.
-----------------------------------------------------------
